5.651684974670410355e+01
2.915916389465332159e+01
1.786257675170898551e+01
1.845655218124389663e+01
1.535908643722534173e+01
1.380735843658447237e+01
1.308567163467407291e+01
1.323589712142944386e+01
1.196741950988769609e+01
1.245671585083007749e+01
1.145954299926757791e+01
1.045550872802734332e+01
1.013740839004516658e+01
1.065062288284301673e+01
9.863852863311768360e+00
9.724006519317626385e+00
1.047213279724121016e+01
9.562778873443603445e+00
9.175462512969970064e+00
1.003136573791503849e+01
9.399995822906493714e+00
8.940480356216431446e+00
1.005599077224731452e+01
9.153024406433106108e+00
8.936312026977539347e+00
8.912512054443359588e+00
8.776919898986816904e+00
9.191374330520629243e+00
9.489192438125609641e+00
8.914202642440795188e+00
8.336817493438720916e+00
8.550870847702025657e+00
8.554993247985839488e+00
8.334508047103881268e+00
8.376847133636474041e+00
8.338144960403441885e+00
8.464879941940306907e+00
8.152671766281127219e+00
8.074777317047118430e+00
8.144552688598633239e+00
8.230418996810913157e+00
8.024666118621826882e+00
8.802050409317017099e+00
8.059317865371703249e+00
7.934810419082641175e+00
7.974983978271484197e+00
8.388917646408081907e+00
7.990534458160400533e+00
7.937763538360595561e+00
7.896920356750488423e+00
