4.591882972717284872e+01
2.046050361633300696e+01
1.912640121459961051e+01
1.749032598495483271e+01
1.626801314353942729e+01
1.519378672599792424e+01
1.415445599555969203e+01
1.323425706863403306e+01
1.252928202629089327e+01
1.174537683486938455e+01
1.124084706306457448e+01
1.070887395858764712e+01
1.034253538131713945e+01
9.939081163406372710e+00
9.712410497665405984e+00
9.443404626846312766e+00
9.255652828216552663e+00
9.435566039085388823e+00
8.878973951339721893e+00
8.763624839782714560e+00
8.757839984893799112e+00
8.656220979690552042e+00
8.498309125900268768e+00
8.363032827377319123e+00
8.345215435028075390e+00
8.402780761718750213e+00
7.946151642799377690e+00
7.828793301582336106e+00
7.834066519737243439e+00
7.791475577354431081e+00
7.543769516944885289e+00
7.600184321403503418e+00
7.473272366523742605e+00
7.503363332748413050e+00
7.432532444000243821e+00
7.386934499740601012e+00
7.414891762733459402e+00
7.345074357986450586e+00
7.343314933776855291e+00
7.295458240509033132e+00
7.170489921569823899e+00
7.169234838485717631e+00
7.130950522422790705e+00
7.087451329231262420e+00
7.037800655364990554e+00
6.987595968246459677e+00
7.020201892852782954e+00
7.026090793609618856e+00
6.958879990577697683e+00
6.908151454925537394e+00
