3.006969921112060717e+01
1.457593104934692292e+02
1.767016719818115078e+01
1.152154329872131257e+03
1.674857986450195213e+01
3.452347608566284265e+01
1.433568464279174748e+01
1.242642658233642550e+01
1.232067451477050746e+01
1.193675682067871158e+01
1.171511463165283118e+01
1.129024942398071296e+01
1.163470664978027358e+01
1.067178276062011655e+01
1.091582370758056619e+01
9.832310066223143963e+00
9.953154411315917827e+00
9.384450664520263885e+00
1.092155191421508853e+01
9.299689044952392791e+00
9.179043483734130149e+00
9.508751068115234517e+00
9.081523799896240590e+00
9.104255332946777912e+00
9.203611183166504617e+00
8.661185998916625550e+00
9.349836769104003409e+00
8.853514041900634624e+00
8.938629980087279492e+00
8.409793272018433186e+00
8.609922990798949627e+00
8.539533004760741619e+00
8.329902858734131499e+00
8.334638710021971875e+00
8.875060682296753711e+00
8.716077327728271484e+00
8.103705215454102273e+00
8.346705665588379119e+00
8.129911479949951669e+00
7.971340246200561808e+00
8.270761747360229066e+00
8.169021062850951864e+00
7.966303920745849254e+00
8.568185052871704954e+00
8.130143585205077628e+00
8.199908094406128001e+00
8.043076333999634286e+00
8.009853382110595277e+00
8.010954647064208345e+00
7.780211772918701030e+00
